-------------------------------------------------------------------------------
Test set: be.ordina.AppTest2Categorie
-------------------------------------------------------------------------------
Tests run: 5, Failures: 3, Errors: 0, Skipped: 0, Time elapsed: 43.4 s <<< FAILURE! - in be.ordina.AppTest2Categorie
checkAllowedMovieCategorieUser[0: Jean-Guy, Younger Kid, Horror, 0](be.ordina.AppTest2Categorie)  Time elapsed: 5.009 s  <<< FAILURE!
java.lang.AssertionError: Number of movies 3 available for Horroris not allowed (max 0)
	at be.ordina.AppTest2Categorie.checkAllowedMovieCategorieUser(AppTest2Categorie.java:94)

checkAllowedMovieCategorieUser[2: Nicolas, Teen, Thriller, 15](be.ordina.AppTest2Categorie)  Time elapsed: 4.836 s  <<< FAILURE!
java.lang.AssertionError: Number of movies 19 available for Thrilleris not allowed (max 15)
	at be.ordina.AppTest2Categorie.checkAllowedMovieCategorieUser(AppTest2Categorie.java:94)

checkAllowedMovieCategorieUser[3: Dennis, Older Kid, Horror, 5](be.ordina.AppTest2Categorie)  Time elapsed: 4.394 s  <<< FAILURE!
java.lang.AssertionError: Number of movies 37 available for Horroris not allowed (max 5)
	at be.ordina.AppTest2Categorie.checkAllowedMovieCategorieUser(AppTest2Categorie.java:94)

