be\ordina\AppTest1Users.class
be\ordina\pages\Categories.class
be\ordina\general\MainUser.class
be\ordina\pages\SideBarMovieAndShows.class
be\ordina\AppTest.class
be\ordina\general\ChildUser.class
be\ordina\general\Movie.class
be\ordina\system\Site.class
be\ordina\pages\SignUpFrame.class
be\ordina\general\User.class
be\ordina\pages\HomePage.class
be\ordina\AppTest2Categorie.class
be\ordina\pages\SwitchandSelectUser.class
be\ordina\pages\AccountPage.class
be\ordina\pages\PlexApplication.class
be\ordina\system\Browser.class
be\ordina\pages\UsersandSharing.class
be\ordina\AppTest3Logins.class
be\ordina\AppTestBrowsers.class
be\ordina\pages\SignInFrame.class
